Place,Name,Sex,BirthDate,Age,Country,State,Equipment,Division,BodyweightKg,WeightClassKg,Squat1Kg,Squat2Kg,Squat3Kg,Squat4Kg,Best3SquatKg,Bench1Kg,Bench2Kg,Bench3Kg,Bench4Kg,Best3BenchKg,Deadlift1Kg,Deadlift2Kg,Deadlift3Kg,Deadlift4Kg,Best3DeadliftKg,TotalKg,Event
1,Stephani Pargas,F,1985-03-28,37,,,Raw,DT Sub Master,79.74,82.5,100,107.5,117.5,,117.5,52.5,57.5,-60,,57.5,115,125,137.5,,137.5,312.5,SBD
1,Marissa Coon,F,1990-08-06,32,,,Raw,Open,73.02,75,157.5,-175,-175,,157.5,87.5,95,-102.5,,95,160,-170,-170,,160,412.5,SBD
1,Vanessa Odell,F,1979-01-19,44,,,Wraps,DT Open,101.96,110,82.5,100,105,,105,42.5,-50,-62.5,,42.5,100,110,117.5,122.5,117.5,265,SBD
1,Whitley Hamilton,F,1997-10-16,25,,,Wraps,DT Open,124.82,125,155,162.5,175,,175,65,70,-75,,70,162.5,175,-182.5,,175,420,SBD
1,Kevin Keefer,M,1997-03-17,25,,,Raw,DT Open,65.86,67.5,142.5,162.5,-170,,162.5,105,-122.5,-127.5,,105,195,-210,210,,210,477.5,SBD
1,Matthew Hargis,M,1997-12-18,25,,,Raw,DT Open,80.92,82.5,202.5,217.5,-227.5,,217.5,130,-140,-142.5,,130,227.5,242.5,-252.5,,242.5,590,SBD
1,Abm Slahudin,M,2002-06-01,20,USA,TX,Raw,DT Open,86.1,90,185,197.5,210,,210,125,132.5,-137.5,,132.5,207.5,217.5,227.5,,227.5,570,SBD
1,John Trent,M,1963-03-31,59,,,Raw,M2,93.34,100,185,187.5,192.5,210,192.5,102.5,112.5,-125,,112.5,205,220,230,-240,230,535,SBD
1,Phu Lam,M,1987-04-24,35,,,Raw,Open,98.61,100,205,-225,-225,,205,160,165,-175,,165,220,235,242.5,,242.5,612.5,SBD
2,John Trent,M,1963-03-31,59,,,Raw,Open,93.34,100,185,187.5,192.5,210,192.5,102.5,112.5,-125,,112.5,205,220,230,-240,230,535,SBD
1,Lukas McKennedy,M,1995-08-18,27,,,Raw,Open,112.4,125,225,240,255,,255,150,160,172.5,,172.5,225,250,-272.5,,250,677.5,SBD
1,Jay Mullens,M,1989-01-26,34,,,Raw,Open,142.88,140+,272.5,285,295,,295,237.5,250,-260,,250,330,352.5,365,,365,910,SBD
1,Phu Lam,M,1987-04-24,35,,,Raw,SM,98.61,100,205,-225,-225,,205,160,165,-175,,165,220,235,242.5,,242.5,612.5,SBD
1,Christian Kearney,M,1988-09-20,34,,,Wraps,DT Open,65.86,67.5,235,252.5,-257.5,,252.5,132.5,140,-142.5,,140,287.5,-310,,,287.5,680,SBD
1,Zak Kellum,M,1994-01-26,29,,,Wraps,DT Open,96.88,100,215,225,232.5,,232.5,125,135,-145,,135,237.5,245,-252.5,,245,612.5,SBD
1,Rickey Carter,M,1958-09-09,64,,,Wraps,Master 3,113.48,125,230,240,247.5,,247.5,147.5,160,-175,,160,230,240,255,-260,255,662.5,SBD
1,Ryan Graham,M,1996-02-17,27,,,Wraps,Open,105.95,110,215,225,-237.5,,225,145,152.5,157.5,162.5,157.5,220,227.5,-235,,227.5,610,SBD
1,Austin Coon,M,1992-08-14,30,,,Raw,Open,92.71,100,,,,,,140,152.5,165,,165,232.5,250,260,,260,425,BD
1,Alex Lam,M,2005-12-27,17,,,Raw,Teen,59.14,60,,,,,,62.5,70,75,,75,142.5,152.5,167.5,,167.5,242.5,BD
1,Trenton Feuerbacher,M,1993-02-24,29,,,Raw,ADT,142.5,140+,,,,,,142.5,-152.5,-152.5,,142.5,,,,,,142.5,B
1,Mario Valle,M,1974-08-16,48,,,Raw,DT Master 1,88.45,90,,,,,,215,,228.5,,228.5,,,,,,228.5,B
1,Wellington Archie,M,1987-05-15,35,,,Raw,DT Sub Master,149.68,140+,,,,,,225,237.5,-242.5,,237.5,,,,,,237.5,B
1,Trenton Feuerbacher,M,1993-02-24,29,,,Raw,Open,142.5,140+,,,,,,142.5,-152.5,-152.5,,142.5,,,,,,142.5,B
1,Trenton Feuerbacher,M,1993-02-24,29,,,Raw,P/F/M,142.5,140+,,,,,,142.5,-152.5,-152.5,,142.5,,,,,,142.5,B
1,Jase Hamblin,M,2013-08-07,9,,,Raw,DT Novice,56.97,60,,,,,,,,,,,32.5,40,47.5,,47.5,47.5,D
1,Quentin Bowes,M,1998-11-20,24,,,Raw,DT Open,123.74,125,,,,,,,,,,,307.5,320,-327.5,,320,320,D
1,Caleb Cornelius,M,2007-08-21,15,,,Raw,DT Teen,97.8,100,,,,,,,,,,,175,185,190,-195,190,190,D
1,Jordan Currin,M,2007-05-16,15,,,Raw,DT Teen,100.78,110,,,,,,,,,,,185,205,-227.5,,205,205,D
